Chapter 5 Spatial prioritizations | PRIORITIZR WORKSHOP MANUAL
…
# solve problem
s1 <- solve(p1)

# print solution, the solution_1 column contains the solution values
# indicating if a planning unit is (1) selected or (0) not
print(s1)

## Simple feature collection with 516 features and 7 fields
## Geometry type: MULTIPOLYGON
## Dimension:     XY
## Bounding box:  xmin: 348703.2 ymin: 5167775 xmax: 611932.4 ymax: 5344516
## Projected CRS: WGS 84 / UTM zone 55S
## # A tibble: 516 × 8
##       id  cost status locked_in locked_out pa_status solution_1
##    <int> <dbl>  <int> <lgl>     <lgl>          <dbl>      <dbl>
##  1   557  29.7      0 FALSE     FALSE              0          0
##  2   558  29.9      0 FALSE     FALSE              0          0
##  3   574  28.6      0 FALSE     FALSE              0          0
##  4   575  30.8      0 FALSE     FALSE              0          0
##  5   576  38.8      0 FALSE     FALSE              0          0
##  6   577  38.1      2 TRUE      FALSE              1          0
##  7   578  33.3      2 TRUE      FALSE              1          0
##  8   592  31.7      0 FALSE     FALSE              0          0
##  9   593  29.0      0 FALSE     FALSE              0          0
## 10   594  31.6      0 FALSE     FALSE              0          0
## # ℹ 506 more rows
## # ℹ 1 more variable: geometry <MULTIPOLYGON [m]>
…
# solve problem,
# note this will take around 30 seconds
s5 <- solve(p5)

# print solution
print(s5)

## Simple feature collection with 516 features and 7 fields
## Geometry type: MULTIPOLYGON
## Dimension:     XY
## Bounding box:  xmin: 348703.2 ymin: 5167775 xmax: 611932.4 ymax: 5344516
## Projected CRS: WGS 84 / UTM zone 55S
## # A tibble: 516 × 8
##       id  cost status locked_in locked_out pa_status solution_1
##    <int> <dbl>  <int> <lgl>     <lgl>          <dbl>      <dbl>
##  1   557  29.7      0 FALSE     FALSE              0          0
##  2   558  29.9      0 FALSE     FALSE              0          0
##  3   574  28.6      0 FALSE     FALSE              0          0
##  4   575  30.8      0 FALSE     FALSE              0          0
##  5   576  38.8      0 FALSE     FALSE              0          0
##  6   577  38.1      2 TRUE      FALSE              1          1
##  7   578  33.3      2 TRUE      FALSE              1          1
##  8   592  31.7      0 FALSE     FALSE              0          0
##  9   593  29.0      0 FALSE     FALSE              0          0
## 10   594  31.6      0 FALSE     FALSE              0          0
## # ℹ 506 more rows
## # ℹ 1 more variable: geometry <MULTIPOLYGON [m]>
…
# print solution
print(s8)

## Simple feature collection with 516 features and 12 fields
## Geometry type: MULTIPOLYGON
## Dimension:     XY
## Bounding box:  xmin: 348703.2 ymin: 5167775 xmax: 611932.4 ymax: 5344516
## Projected CRS: WGS 84 / UTM zone 55S
## # A tibble: 516 × 13
##       id  cost status locked_in locked_out pa_status solution_1 solution_2
##    <int> <dbl>  <int> <lgl>     <lgl>          <dbl>      <dbl>      <dbl>
##  1   557  29.7      0 FALSE     FALSE              0          0          0
##  2   558  29.9      0 FALSE     FALSE              0          0          0
##  3   574  28.6      0 FALSE     FALSE              0          0          0
##  4   575  30.8      0 FALSE     FALSE              0          0          0
##  5   576  38.8      0 FALSE     FALSE              0          0          0
##  6   577  38.1      2 TRUE      FALSE              1          0          0
##  7   578  33.3      2 TRUE      FALSE              1          0          0
##  8   592  31.7      0 FALSE     FALSE              0          0          0
##  9   593  29.0      0 FALSE     FALSE              0          0          0
## 10   594  31.6      0 FALSE     FALSE              0          0          0
## # ℹ 506 more rows
## # ℹ 5 more variables: solution_3 <dbl>, solution_4 <dbl>, solution_5 <dbl>,
## #   solution_6 <dbl>, geometry <MULTIPOLYGON [m]>
…
